%YAML 1.1
%TAG !u! tag:unity3d.com,2011:
--- !u!162 &1
EditorUserSettings:
  m_ObjectHideFlags: 0
  serializedVersion: 4
  m_ConfigSettings:
    RecentlyUsedScenePath-0:
      value: 22424703114646680e0b0227036c6c111b07142f1f2b233e2867083debf42d
      flags: 0
    UnityEditor.ShaderGraph.Blackboard:
      value: 18135939215a0a5004000b0e15254b524c030a3f2964643d120d1230e9e93a3fd6e826abbd2e2d293c4ead313b08042de6030a0afa240c0d020be94c4ba75e435d8715fa32c70d15d11612dacc11fee5d3c5d1fe9ab1be968e93e2ffcbc3e7e2f0b3ffe0e8b0be9af8faaaffff8e85dd8390e5919b8899daa7
      flags: 0
    UnityEditor.ShaderGraph.FloatingWindowsLayout2:
      value: 181344140043005e1a220d3b1f364b524c0c5a27130c293326201334cee5322ca0bd22fbf23f737e343dcb3307350831f53e061bb4510c0a1d1df84253f22f2514d70ccc19c91333cd1f0fcbd95f8bb39b8698a8d5d4cfd7ccd6bafdfae4eff4daf7a3e8afbcbe9afae1aefdedcff8f7c8d0b28696dd8bdff8888282ed9d829f9bcfc78c8ad68b958990bd90
      flags: 0
    UnityEditor.ShaderGraph.InspectorWindow:
      value: 18135939215a0a5004000b0e15254b524c030a3f2964643d120d1230e9e93a3fd6e826abbd3c3e302a07a37e0901373ae01e0008f707250d171df81a53a5405d41895ac825e0100ec20313c0d91cddccd3d0c7efcca9bd81908fecb0f9cfddf1eff4e7a1b1eae482f0fdabe2e1928b86d888ed969b938797a7cf
      flags: 0
    UnityEditor.ShaderGraph.ToggleSettings:
      value: 18135d1527590858060c032302276919051e1a26296a7c243f3c187fa0e92708f0e220e0e22d09352a0bed30017c5b2be01f0c47b40219221f1ded0b12eb1f0127cc0bcc18c41a5e910d0edbc85193e0dadadbf8e8f9e8ced7dba5e0b6aaaca4dbfeabfef4eae1
      flags: 0
    vcSharedLogLevel:
      value: 0d5e400f0650
      flags: 0
  m_VCAutomaticAdd: 1
  m_VCDebugCom: 0
  m_VCDebugCmd: 0
  m_VCDebugOut: 0
  m_SemanticMergeMode: 2
  m_VCShowFailedCheckout: 1
  m_VCOverwriteFailedCheckoutAssets: 1
  m_VCProjectOverlayIcons: 1
  m_VCHierarchyOverlayIcons: 1
  m_VCOtherOverlayIcons: 1
  m_VCAllowAsyncUpdate: 1
